{
  "code": 200,
  "meta": {
    "pagination": {
      "total": 2377,
      "pages": 119,
      "page": 1,
      "limit": 20
    }
  },
  "data": [
    {
      "id": 2405,
      "name": "Chandramani Kaniyar",
      "email": "kaniyar_chandramani@feest-little.io",
      "gender": "male",
      "status": "active"
    },
    {
      "id": 2403,
      "name": "Baalaaditya Patel",
      "email": "baalaaditya_patel@vonrueden-rutherford.org",
      "gender": "male",
      "status": "active"
    },
    {
      "id": 2401,
      "name": "Vasudev Achari",
      "email": "vasudev_achari@ruecker-gleichner.net",
      "gender": "female",
      "status": "inactive"
    },
    {
      "id": 2400,
      "name": "Miss Bhaanumati Joshi",
      "email": "miss_joshi_bhaanumati@lehner.net",
      "gender": "female",
      "status": "active"
    },
    {
      "id": 2399,
      "name": "Rep. Jagdeep Dutta",
      "email": "dutta_rep_jagdeep@jerde.io",
      "gender": "male",
      "status": "active"
    },
    {
      "id": 2398,
      "name": "Gouranga Johar",
      "email": "johar_gouranga@kling.com",
      "gender": "female",
      "status": "inactive"
    },
    {
      "id": 2397,
      "name": "Gov. Rohan Khatri",
      "email": "khatri_rohan_gov@kassulke.name",
      "gender": "male",
      "status": "inactive"
    },
    {
      "id": 2396,
      "name": "Himadri Bhattathiri",
      "email": "bhattathiri_himadri@shanahan.biz",
      "gender": "female",
      "status": "active"
    },
    {
      "id": 2395,
      "name": "Tanushree Menon",
      "email": "tanushree_menon@lakin.org",
      "gender": "female",
      "status": "inactive"
    },
    {
      "id": 2394,
      "name": "Rupinder Ahluwalia",
      "email": "ahluwalia_rupinder@grimes.net",
      "gender": "female",
      "status": "active"
    },
    {
      "id": 2393,
      "name": "Jai Ahuja MD",
      "email": "ahuja_jai_md@goodwin.info",
      "gender": "female",
      "status": "active"
    },
    {
      "id": 2392,
      "name": "Hamsini Bharadwaj",
      "email": "bharadwaj_hamsini@stroman.org",
      "gender": "female",
      "status": "inactive"
    },
    {
      "id": 2391,
      "name": "Anjali Acharya",
      "email": "acharya_anjali@reichert.com",
      "gender": "male",
      "status": "active"
    },
    {
      "id": 2389,
      "name": "Sen. Manikya Verma",
      "email": "verma_manikya_sen@hintz.net",
      "gender": "female",
      "status": "active"
    },
    {
      "id": 2388,
      "name": "Radha Bhattathiri V",
      "email": "bhattathiri_v_radha@larson-kuphal.name",
      "gender": "female",
      "status": "inactive"
    },
    {
      "id": 2387,
      "name": "Gajbaahu Khatri",
      "email": "gajbaahu_khatri@wuckert.io",
      "gender": "male",
      "status": "active"
    },
    {
      "id": 2386,
      "name": "Rohan Patil",
      "email": "patil_rohan@herzog.info",
      "gender": "female",
      "status": "active"
    },
    {
      "id": 2385,
      "name": "Kirti Singh",
      "email": "singh_kirti@bruen-oreilly.io",
      "gender": "male",
      "status": "inactive"
    },
    {
      "id": 2384,
      "name": "Divya Desai",
      "email": "desai_divya@heaney-wisozk.name",
      "gender": "male",
      "status": "inactive"
    },
    {
      "id": 2383,
      "name": "Kumuda Dwivedi",
      "email": "dwivedi_kumuda@kessler.info",
      "gender": "male",
      "status": "active"
    }
  ]
}