    {
        "code": 200,
        "meta": {
          "pagination": {
            "total": 1499,
            "pages": 75,
            "page": 1,
            "limit": 20
          }
        },
        "data": [
          {
            "id": 6,
            "name": "Rev. Anand Swarup Prajapat",
            "email": "rev_anand_prajapat_swarup@kris.org",
            "gender": "Female",
            "status": "Active",
            "created_at": "2021-01-05T03:50:03.616+05:30",
            "updated_at": "2021-01-05T03:50:03.616+05:30"
          },
          {
            "id": 7,
            "name": "Aasa Guha",
            "email": "guha_aasa@mitchell.biz",
            "gender": "Female",
            "status": "Active",
            "created_at": "2021-01-05T03:50:03.637+05:30",
            "updated_at": "2021-01-05T03:50:03.637+05:30"
          },
          {
            "id": 8,
            "name": "Fr. Aagneya Sethi",
            "email": "sethi_aagneya_fr@howe.org",
            "gender": "Male",
            "status": "Active",
            "created_at": "2021-01-05T03:50:03.644+05:30",
            "updated_at": "2021-01-05T03:50:03.644+05:30"
          },
          {
            "id": 9,
            "name": "Gobinda Bandopadhyay",
            "email": "gobinda_bandopadhyay@gorczany-stracke.co",
            "gender": "Female",
            "status": "Inactive",
            "created_at": "2021-01-05T03:50:03.664+05:30",
            "updated_at": "2021-01-05T03:50:03.664+05:30"
          },
          {
            "id": 10,
            "name": "Devajyoti Gandhi",
            "email": "gandhi_devajyoti@hessel.io",
            "gender": "Female",
            "status": "Active",
            "created_at": "2021-01-05T03:50:03.686+05:30",
            "updated_at": "2021-01-05T03:50:03.686+05:30"
          },
          {
            "id": 11,
            "name": "Ravi Devar I",
            "email": "ravi_i_devar@larkin-robel.org",
            "gender": "Female",
            "status": "Inactive",
            "created_at": "2021-01-05T03:50:03.707+05:30",
            "updated_at": "2021-01-05T03:50:03.707+05:30"
          },
          {
            "id": 12,
            "name": "Dwaipayana Jain",
            "email": "jain_dwaipayana@smith.co",
            "gender": "Female",
            "status": "Active",
            "created_at": "2021-01-05T03:50:03.724+05:30",
            "updated_at": "2021-01-05T03:50:03.724+05:30"
          },
          {
            "id": 13,
            "name": "Chandrakin Patil",
            "email": "patil_chandrakin@farrell.org",
            "gender": "Male",
            "status": "Active",
            "created_at": "2021-01-05T03:50:03.740+05:30",
            "updated_at": "2021-01-05T03:50:03.740+05:30"
          },
          {
            "id": 14,
            "name": "Bilva Nambeesan",
            "email": "nambeesan_bilva@dubuque.co",
            "gender": "Male",
            "status": "Inactive",
            "created_at": "2021-01-05T03:50:03.759+05:30",
            "updated_at": "2021-01-05T03:50:03.759+05:30"
          },
          {
            "id": 15,
            "name": "Deevakar Nambeesan",
            "email": "nambeesan_deevakar@fahey-kris.com",
            "gender": "Male",
            "status": "Inactive",
            "created_at": "2021-01-05T03:50:03.762+05:30",
            "updated_at": "2021-01-05T03:50:03.762+05:30"
          },
          {
            "id": 17,
            "name": "Geeta Chaturvedi",
            "email": "geeta_chaturvedi@windler.name",
            "gender": "Female",
            "status": "Inactive",
            "created_at": "2021-01-05T03:50:03.789+05:30",
            "updated_at": "2021-01-05T03:50:03.789+05:30"
          },
          {
            "id": 18,
            "name": "Aaratrika Bandopadhyay",
            "email": "bandopadhyay_aaratrika@rogahn.biz",
            "gender": "Female",
            "status": "Active",
            "created_at": "2021-01-05T03:50:03.803+05:30",
            "updated_at": "2021-01-05T03:50:03.803+05:30"
          },
          {
            "id": 19,
            "name": "Adhrit Saini",
            "email": "adhrit_saini@prohaska-lockman.info",
            "gender": "Female",
            "status": "Inactive",
            "created_at": "2021-01-05T03:50:03.814+05:30",
            "updated_at": "2021-01-05T03:50:03.814+05:30"
          },
          {
            "id": 20,
            "name": "Vrund Trivedi",
            "email": "vrund_trivedi@kautzer.name",
            "gender": "Female",
            "status": "Inactive",
            "created_at": "2021-01-05T03:50:03.822+05:30",
            "updated_at": "2021-01-05T03:50:03.822+05:30"
          }
        ]
      }